<?xml version="1.0" encoding="UTF-8" standalone="no"?>
<svg
   xmlns:dc="http://purl.org/dc/elements/1.1/"
   xmlns:cc="http://creativecommons.org/ns#"
   xmlns:rdf="http://www.w3.org/1999/02/22-rdf-syntax-ns#"
   xmlns:svg="http://www.w3.org/2000/svg"
   xmlns="http://www.w3.org/2000/svg"
   id="svg8"
   version="1.1"
   viewBox="0 0 423.33332 317.5"
   height="1200"
   width="1600">
  <defs
     id="defs2" />
  <metadata
     id="metadata5">
    <rdf:RDF>
      <cc:Work
         rdf:about="">
        <dc:format>image/svg+xml</dc:format>
        <dc:type
           rdf:resource="http://purl.org/dc/dcmitype/StillImage" />
        <dc:title></dc:title>
      </cc:Work>
    </rdf:RDF>
  </metadata>
  <g
     transform="translate(0,20.500016)"
     id="layer1">
    <g
       transform="translate(105.84591,-83.60838)"
       id="g4585">
      <circle
         style="fill:#6e7fb5;fill-opacity:1;stroke:none;stroke-width:0.26458332;stroke-opacity:1"
         id="path4522"
         cx="108.47916"
         cy="176.9335"
         r="66.901787" />
      <path
         style="fill:#6e7fb5;fill-opacity:1;stroke:none;stroke-width:0.26458332px;stroke-linecap:butt;stroke-linejoin:miter;stroke-opacity:1"
         d="M 44.223214,165.59422 29.482142,97.558508 c 0,0 -4.535714,57.452382 4.913691,99.407742 0,0 9.827381,27.59226 10.96131,-3.02381 z"
         id="path4543" />
      <path
         style="fill:#6e7fb5;fill-opacity:1;stroke:none;stroke-width:0.26458332px;stroke-linecap:butt;stroke-linejoin:miter;stroke-opacity:1"
         d="m 172.19106,163.09997 14.74108,-68.035711 c 0,0 4.53571,57.452381 -4.9137,99.407741 0,0 -9.82738,27.59226 -10.96131,-3.02381 z"
         id="path4543-5" />
      <path
         style="fill:#f5ffff;fill-opacity:1;stroke:#000000;stroke-width:0.26458332px;stroke-linecap:butt;stroke-linejoin:miter;stroke-opacity:1"
         d="m 49.602658,208.35139 c 0,0 17.677102,57.7845 -42.4211109,59.67438 0,0 35.0849689,35.28542 75.5284219,-29.34851 z"
         id="path4524" />
      <path
         style="fill:#f5ffff;fill-opacity:1;stroke:#000000;stroke-width:0.26458332px;stroke-linecap:butt;stroke-linejoin:miter;stroke-opacity:1"
         d="m 166.93185,209.31917 c 0,0 -22.54494,56.14093 37.55327,58.03081 0,0 -32.06115,36.73051 -72.50461,-27.90342 z"
         id="path4524-4" />
    </g>
    <text
       id="text4589"
       y="230.06049"
       x="109.51153"
       style="font-style:normal;font-weight:normal;font-size:12.64100742px;line-height:1.25;font-family:sans-serif;letter-spacing:0px;word-spacing:0px;fill:#162d50;fill-opacity:1;stroke:none;stroke-width:0.31602517"
       xml:space="preserve"><tspan
         style="font-style:normal;font-variant:normal;font-weight:normal;font-stretch:normal;font-size:30.33841896px;font-family:'Segoe Script';-inkscape-font-specification:'Segoe Script';fill:#162d50;stroke-width:0.31602517"
         y="230.06049"
         x="109.51153"
         id="tspan4587">Troll Engine</tspan></text>
    <text
       id="text4593"
       y="260.78796"
       x="105.60103"
       style="font-style:normal;font-variant:normal;font-weight:normal;font-stretch:normal;font-size:21.94831085px;line-height:1.25;font-family:sans-serif;-inkscape-font-specification:sans-serif;letter-spacing:0px;word-spacing:0px;fill:#000000;fill-opacity:1;stroke:none;stroke-width:0.54870772"
       xml:space="preserve"><tspan
         style="font-style:normal;font-variant:normal;font-weight:normal;font-stretch:normal;font-family:'Courier New';-inkscape-font-specification:'Courier New';stroke-width:0.54870772"
         y="260.78796"
         x="105.60103"
         id="tspan4591">Platform Android</tspan></text>
  </g>
</svg>
